[gd_scene load_steps=5 format=2]

[ext_resource path="res://scripts/HUD.gd" type="Script" id=1]
[ext_resource path="res://sprites/UI/playerLife2_blue.png" type="Texture2D" id=2]
[ext_resource path="res://fonts/kenvector_future.ttf" type="FontFile" id=3]

[sub_resource type="FontFile" id=1]
size = 32
outline_size = 2
outline_color = Color( 0, 0, 0, 1 )
font_data = ExtResource( 3 )

[node name="HUD" type="CanvasLayer"]
script = ExtResource( 1 )

[node name="ScoreLabel" type="Label" parent="."]
offset_left = 20.0
offset_top = 15.0
offset_right = 40.0
offset_bottom = 14.0
theme_override_fonts/font = SubResource( 1 )
text = "0"

[node name="Lives" type="HBoxContainer" parent="."]
anchor_left = 1.0
anchor_right = 1.0
offset_left = -40.0
offset_top = 20.0
offset_right = -20.0
offset_bottom = 40.0
grow_horizontal = 0
alignment = 2

[node name="LifeTemplate" type="TextureRect" parent="."]
visible = false
offset_right = 37.0
offset_bottom = 26.0
texture = ExtResource( 2 )
